/root/spring-boot-mongo-docker/src/main/java/com/mt/springmongo/UserController.java
/root/spring-boot-mongo-docker/src/main/java/com/mt/springmongo/UserResource.java
/root/spring-boot-mongo-docker/src/main/java/com/mt/springmongo/UserRepository.java
/root/spring-boot-mongo-docker/src/main/java/com/mt/springmongo/WebConfig.java
/root/spring-boot-mongo-docker/src/main/java/com/mt/springmongo/DemoApp.java
/root/spring-boot-mongo-docker/src/main/java/com/mt/springmongo/User.java
